- FILA 1 INSERTADO CLIENTE:  CUIT  <font color="RED"> | FALTA EL CAMPO TELEFONO Y ES OBLIGATORIO </font>
- FILA 2 INSERTADO CLIENTE:  CUIT  <font color="RED"> | FALTA EL CAMPO TELEFONO Y ES OBLIGATORIO </font>
- FILA 3 INSERTADO CLIENTE:  CUIT  <font color="RED"> | FALTA EL CAMPO TELEFONO Y ES OBLIGATORIO </font>
- FILA 4 INSERTADO CLIENTE:  CUIT  <font color="RED"> | FALTA EL CAMPO TELEFONO Y ES OBLIGATORIO </font>
- FILA 5 INSERTADO CLIENTE:  CUIT  <font color="RED"> | FALTA EL CAMPO TELEFONO Y ES OBLIGATORIO </font>
- FILA 6 INSERTADO CLIENTE:  CUIT  <font color="RED"> | FALTA EL CAMPO TELEFONO Y ES OBLIGATORIO </font>
- FILA 7 INSERTADO CLIENTE:  CUIT  <font color="RED"> | FALTA EL CAMPO TELEFONO Y ES OBLIGATORIO </font>
- FILA 8 INSERTADO CLIENTE:  CUIT  <font color="RED"> | FALTA EL CAMPO TELEFONO Y ES OBLIGATORIO </font>
- FILA 9 INSERTADO CLIENTE:  CUIT  <font color="RED"> | FALTA EL CAMPO TELEFONO Y ES OBLIGATORIO </font>
- FILA 10 INSERTADO CLIENTE:  CUIT  <font color="RED"> | FALTA EL CAMPO TELEFONO Y ES OBLIGATORIO </font>
- FILA 11 INSERTADO CLIENTE:  CUIT  <font color="RED"> | FALTA EL CAMPO TELEFONO Y ES OBLIGATORIO </font>
- FILA 12 INSERTADO CLIENTE:  CUIT  <font color="RED"> | FALTA EL CAMPO TELEFONO Y ES OBLIGATORIO </font>
- FILA 13 INSERTADO CLIENTE:  CUIT  <font color="RED"> | FALTA EL CAMPO TELEFONO Y ES OBLIGATORIO </font>
- FILA 14 INSERTADO CLIENTE:  CUIT  <font color="RED"> | FALTA EL CAMPO TELEFONO Y ES OBLIGATORIO </font>
- FILA 15 INSERTADO CLIENTE:  CUIT  <font color="RED"> | FALTA EL CAMPO TELEFONO Y ES OBLIGATORIO </font>
- FILA 16 INSERTADO CLIENTE:  CUIT  <font color="RED"> | FALTA EL CAMPO TELEFONO Y ES OBLIGATORIO </font>
- FILA 17 INSERTADO CLIENTE:  CUIT  <font color="RED"> | FALTA EL CAMPO TELEFONO Y ES OBLIGATORIO </font>
- FILA 18 INSERTADO CLIENTE:  CUIT  <font color="RED"> | FALTA EL CAMPO TELEFONO Y ES OBLIGATORIO </font>
- FILA 19 INSERTADO CLIENTE:  CUIT  <font color="RED"> | FALTA EL CAMPO TELEFONO Y ES OBLIGATORIO </font>
- FILA 20 INSERTADO CLIENTE:  CUIT  <font color="RED"> | FALTA EL CAMPO TELEFONO Y ES OBLIGATORIO </font>
- FILA 21 INSERTADO CLIENTE:  CUIT  <font color="RED"> | FALTA EL CAMPO TELEFONO Y ES OBLIGATORIO </font>
- FILA 22 INSERTADO CLIENTE:  CUIT  <font color="RED"> | FALTA EL CAMPO TELEFONO Y ES OBLIGATORIO </font>
- FILA 23 INSERTADO CLIENTE:  CUIT  <font color="RED"> | FALTA EL CAMPO TELEFONO Y ES OBLIGATORIO </font>
- FILA 24 INSERTADO CLIENTE:  CUIT  <font color="RED"> | FALTA EL CAMPO TELEFONO Y ES OBLIGATORIO </font>
- FILA 25 INSERTADO CLIENTE:  CUIT  <font color="RED"> | FALTA EL CAMPO TELEFONO Y ES OBLIGATORIO </font>
- FILA 26 INSERTADO CLIENTE:  CUIT  <font color="RED"> | FALTA EL CAMPO TELEFONO Y ES OBLIGATORIO </font>
- FILA 27 INSERTADO CLIENTE:  CUIT  <font color="RED"> | FALTA EL CAMPO TELEFONO Y ES OBLIGATORIO </font>
- FILA 28 INSERTADO CLIENTE:  CUIT  <font color="RED"> | FALTA EL CAMPO TELEFONO Y ES OBLIGATORIO </font>
- FILA 29 INSERTADO CLIENTE:  CUIT  <font color="RED"> | FALTA EL CAMPO TELEFONO Y ES OBLIGATORIO </font>
- FILA 30 INSERTADO CLIENTE:  CUIT  <font color="RED"> | FALTA EL CAMPO TELEFONO Y ES OBLIGATORIO </font>
- FILA 31 INSERTADO CLIENTE:  CUIT  <font color="RED"> | FALTA EL CAMPO TELEFONO Y ES OBLIGATORIO </font>
- FILA 32 INSERTADO CLIENTE:  CUIT  <font color="RED"> | FALTA EL CAMPO TELEFONO Y ES OBLIGATORIO </font>
- FILA 33 INSERTADO CLIENTE:  CUIT  <font color="RED"> | FALTA EL CAMPO TELEFONO Y ES OBLIGATORIO </font>
- FILA 34 INSERTADO CLIENTE:  CUIT  <font color="RED"> | FALTA EL CAMPO TELEFONO Y ES OBLIGATORIO </font>
- FILA 35 INSERTADO CLIENTE:  CUIT  <font color="RED"> | FALTA EL CAMPO TELEFONO Y ES OBLIGATORIO </font>
- FILA 36 INSERTADO CLIENTE:  CUIT  <font color="RED"> | FALTA EL CAMPO TELEFONO Y ES OBLIGATORIO </font>
- FILA 1 INSERTADO CLIENTE:  CUIT  
- FILA 2 INSERTADO CLIENTE:  CUIT  
- FILA 3 INSERTADO CLIENTE:  CUIT  
- FILA 4 INSERTADO CLIENTE:  CUIT  
- FILA 5 INSERTADO CLIENTE:  CUIT  
- FILA 6 INSERTADO CLIENTE:  CUIT  
- FILA 7 INSERTADO CLIENTE:  CUIT  
- FILA 8 INSERTADO CLIENTE:  CUIT  
- FILA 9 INSERTADO CLIENTE:  CUIT  
- FILA 10 INSERTADO CLIENTE:  CUIT  
- FILA 11 INSERTADO CLIENTE:  CUIT  
- FILA 12 INSERTADO CLIENTE:  CUIT  
- FILA 13 INSERTADO CLIENTE:  CUIT  
- FILA 14 INSERTADO CLIENTE:  CUIT  
- FILA 15 INSERTADO CLIENTE:  CUIT  
- FILA 16 INSERTADO CLIENTE:  CUIT  
- FILA 17 INSERTADO CLIENTE:  CUIT  
- FILA 18 INSERTADO CLIENTE:  CUIT  
- FILA 19 INSERTADO CLIENTE:  CUIT  
- FILA 20 INSERTADO CLIENTE:  CUIT  
- FILA 21 INSERTADO CLIENTE:  CUIT  
- FILA 22 INSERTADO CLIENTE:  CUIT  
- FILA 23 INSERTADO CLIENTE:  CUIT  
- FILA 24 INSERTADO CLIENTE:  CUIT  
- FILA 25 INSERTADO CLIENTE:  CUIT  
- FILA 26 INSERTADO CLIENTE:  CUIT  
- FILA 27 INSERTADO CLIENTE:  CUIT  
- FILA 28 INSERTADO CLIENTE:  CUIT  
- FILA 29 INSERTADO CLIENTE:  CUIT  
- FILA 30 INSERTADO CLIENTE:  CUIT  
- FILA 31 INSERTADO CLIENTE:  CUIT  
- FILA 32 INSERTADO CLIENTE:  CUIT  
- FILA 33 INSERTADO CLIENTE:  CUIT  
- FILA 34 INSERTADO CLIENTE:  CUIT  
- FILA 35 INSERTADO CLIENTE:  CUIT  
- FILA 36 INSERTADO CLIENTE:  CUIT  
